<?xml version="1.0" encoding="UTF-8" standalone="no"?>
<!-- Created with Inkscape (http://www.inkscape.org/) -->

<svg
   xmlns:dc="http://purl.org/dc/elements/1.1/"
   xmlns:cc="http://creativecommons.org/ns#"
   xmlns:rdf="http://www.w3.org/1999/02/22-rdf-syntax-ns#"
   xmlns:svg="http://www.w3.org/2000/svg"
   xmlns="http://www.w3.org/2000/svg"
   xmlns:sodipodi="http://sodipodi.sourceforge.net/DTD/sodipodi-0.dtd"
   xmlns:inkscape="http://www.inkscape.org/namespaces/inkscape"
   width="100mm"
   height="50mm"
   viewBox="0 0 100 50"
   version="1.1"
   id="svg8"
   inkscape:version="0.92.5 (2060ec1f9f, 2020-04-08)"
   sodipodi:docname="logo.svg">
  <defs
     id="defs2" />
  <sodipodi:namedview
     id="base"
     pagecolor="#ffffff"
     bordercolor="#666666"
     borderopacity="1.0"
     inkscape:pageopacity="0.0"
     inkscape:pageshadow="2"
     inkscape:zoom="2"
     inkscape:cx="198.81416"
     inkscape:cy="87.595154"
     inkscape:document-units="mm"
     inkscape:current-layer="layer1"
     showgrid="false"
     width="82mm"
     inkscape:window-width="1848"
     inkscape:window-height="1016"
     inkscape:window-x="72"
     inkscape:window-y="27"
     inkscape:window-maximized="1"
     showguides="true"
     inkscape:guide-bbox="true">
    <sodipodi:guide
       position="39.28862,20.847023"
       orientation="0,1"
       id="guide836"
       inkscape:locked="false" />
    <sodipodi:guide
       position="51.452008,30.167224"
       orientation="1,0"
       id="guide1281"
       inkscape:locked="false" />
    <sodipodi:guide
       position="55.775111,33.474516"
       orientation="0,1"
       id="guide1283"
       inkscape:locked="false" />
    <sodipodi:guide
       position="58.586309,28.584449"
       orientation="1,0"
       id="guide1285"
       inkscape:locked="false" />
    <sodipodi:guide
       position="39.073288,21.66276"
       orientation="1,0"
       id="guide1295"
       inkscape:locked="false" />
    <sodipodi:guide
       position="75.637275,28.163526"
       orientation="1,0"
       id="guide1307"
       inkscape:locked="false" />
    <sodipodi:guide
       position="34.310725,33.474516"
       orientation="1,0"
       id="guide1309"
       inkscape:locked="false" />
    <sodipodi:guide
       position="54.93391,23.292539"
       orientation="1,0"
       id="guide1321"
       inkscape:locked="false" />
  </sodipodi:namedview>
  <metadata
     id="metadata5">
    <rdf:RDF>
      <cc:Work
         rdf:about="">
        <dc:format>image/svg+xml</dc:format>
        <dc:type
           rdf:resource="http://purl.org/dc/dcmitype/StillImage" />
        <dc:title />
      </cc:Work>
    </rdf:RDF>
  </metadata>
  <g
     inkscape:label="Layer 1"
     inkscape:groupmode="layer"
     id="layer1"
     transform="translate(0,-247)">
    <text
       xml:space="preserve"
       style="font-style:normal;font-weight:normal;font-size:6.80437374px;line-height:1.25;font-family:sans-serif;letter-spacing:0px;word-spacing:0px;fill:#000000;fill-opacity:1;stroke:none;stroke-width:0.17010933"
       x="37.963955"
       y="232.5966"
       id="text817"
       transform="scale(0.83854149,1.1925468)"><tspan
         sodipodi:role="line"
         id="tspan815"
         x="37.963955"
         y="232.5966"
         style="font-style:normal;font-variant:normal;font-weight:normal;font-stretch:normal;font-size:12.70149803px;font-family:'IBM 3270 Semi-Narrow';-inkscape-font-specification:'IBM 3270 Semi-Narrow';fill:#0000ff;fill-opacity:1;stroke-width:0.17010933">&lt;code/&gt;</tspan></text>
    <text
       xml:space="preserve"
       style="font-style:normal;font-variant:normal;font-weight:normal;font-stretch:normal;font-size:10.45737457px;line-height:1.25;font-family:Navilu;-inkscape-font-specification:Navilu;letter-spacing:0px;word-spacing:0px;fill:#000000;fill-opacity:1;stroke:none;stroke-width:0.26143435"
       x="7.5769854"
       y="198.3475"
       id="text834"
       transform="scale(0.72558757,1.3781934)"><tspan
         sodipodi:role="line"
         id="tspan832"
         x="7.5769854"
         y="198.3475"
         style="font-style:normal;font-variant:normal;font-weight:normal;font-stretch:normal;font-size:34.85791397px;line-height:8.25;font-family:Karumbi;-inkscape-font-specification:Karumbi;fill:#ff5f00;fill-opacity:1;stroke-width:0.26143435">just</tspan></text>
    <text
       xml:space="preserve"
       style="font-style:normal;font-variant:normal;font-weight:normal;font-stretch:normal;font-size:9.96471214px;line-height:1.25;font-family:Navilu;-inkscape-font-specification:Navilu;letter-spacing:0px;word-spacing:0px;fill:#000000;fill-opacity:1;stroke:none;stroke-width:0.24911781"
       x="2.6204488"
       y="273.60013"
       id="text840"
       transform="scale(0.94154764,1.0620812)"><tspan
         sodipodi:role="line"
         id="tspan838"
         x="2.6204488"
         y="273.60013"
         style="font-style:normal;font-variant:normal;font-weight:normal;font-stretch:normal;font-size:9.30039883px;font-family:'IBM 3270 Narrow';-inkscape-font-specification:'IBM 3270 Narrow';stroke-width:0.24911781">open-source software</tspan></text>
    <flowRoot
       xml:space="preserve"
       id="flowRoot842"
       style="fill:black;fill-opacity:1;stroke:none;font-family:Navilu;font-style:normal;font-weight:normal;font-size:40px;line-height:1.25;letter-spacing:0px;word-spacing:0px;-inkscape-font-specification:Navilu;font-stretch:normal;font-variant:normal"><flowRegion
         id="flowRegion844"><rect
           id="rect846"
           width="72.14286"
           height="41.785713"
           x="65.714287"
           y="116.11923" /></flowRegion><flowPara
         id="flowPara848" /></flowRoot>    <flowRoot
       xml:space="preserve"
       id="flowRoot850"
       style="fill:black;fill-opacity:1;stroke:none;font-family:Navilu;font-style:normal;font-weight:normal;font-size:40px;line-height:1.25;letter-spacing:0px;word-spacing:0px;-inkscape-font-specification:Navilu;font-stretch:normal;font-variant:normal"><flowRegion
         id="flowRegion852"><rect
           id="rect854"
           width="153.21428"
           height="46.291901"
           x="68.035713"
           y="110.18448" /></flowRegion><flowPara
         id="flowPara856" /></flowRoot>    <path
       style="fill:#0bffff;fill-opacity:1;stroke:#ffffff;stroke-width:0.29107729;stroke-opacity:1"
       id="path1228"
       d="m 34.601755,260.60336 c 0.139202,0.002 0.278422,0.002 0.417633,0.002 0.182692,5.1e-4 0.365382,10e-4 0.548076,10e-4 0.213132,3.4e-4 0.426261,5.5e-4 0.639393,8.2e-4 0.230599,2e-4 0.461203,3.7e-4 0.691801,3.9e-4 0.242405,1.5e-4 0.484811,4.3e-4 0.727218,4.3e-4 0.259307,-4.8e-4 0.518052,0.0195 0.776633,0.0338 0.299809,0.0162 0.598291,0.0463 0.897214,0.0711 0.301004,0.0238 0.599997,0.0624 0.899798,0.0947 0.286389,0.0256 0.57135,0.058 0.855898,0.0948 0.272124,0.0349 0.541531,0.0826 0.812541,0.12293 0.269872,0.0425 0.540451,0.081 0.809479,0.12707 0.274809,0.0456 0.546253,0.10369 0.816629,0.16442 0.276074,0.0614 0.549302,0.13119 0.821651,0.20295 0.273631,0.0727 0.551929,0.1325 0.826902,0.20139 0.268091,0.0649 0.534732,0.13374 0.802549,0.19941 0.280872,0.0752 0.564408,0.14353 0.845353,0.2185 0.271031,0.0707 0.540324,0.14564 0.812691,0.21277 0.247655,0.068 0.494983,0.13683 0.744176,0.2009 0.244765,0.0585 0.485501,0.12785 0.727882,0.19269 0.222043,0.0572 0.439604,0.12574 0.657785,0.1922 0.196294,0.0591 0.392656,0.11803 0.588562,0.17802 0.172115,0.0486 0.338696,0.10895 0.506838,0.16593 0.144524,0.0507 0.284245,0.10989 0.428064,0.1619 0.06695,0.0243 0.13084,0.0538 0.195487,0.082 0.04161,0.0525 -0.956378,0.59275 -0.997992,0.54027 v 0 c -0.06272,-0.027 -0.125406,-0.0542 -0.19036,-0.0775 -0.141396,-0.0535 -0.280289,-0.11157 -0.424002,-0.1609 -0.165713,-0.0576 -0.331493,-0.11517 -0.501036,-0.16483 -0.194879,-0.0606 -0.390568,-0.11934 -0.585693,-0.17936 -0.216027,-0.0666 -0.43215,-0.13337 -0.652054,-0.19084 -0.241343,-0.066 -0.482376,-0.13291 -0.726262,-0.19232 -0.247819,-0.0654 -0.494276,-0.13429 -0.741547,-0.20113 -0.271265,-0.0693 -0.539975,-0.14499 -0.810785,-0.21546 -0.281551,-0.0732 -0.563805,-0.14454 -0.846022,-0.21594 -0.267494,-0.0664 -0.534718,-0.13344 -0.802249,-0.19969 -0.27593,-0.0674 -0.553577,-0.13009 -0.827542,-0.20297 -0.271403,-0.0709 -0.544186,-0.13837 -0.819201,-0.1991 -0.269318,-0.0593 -0.540075,-0.11448 -0.813614,-0.15897 -0.268658,-0.045 -0.538971,-0.0826 -0.808152,-0.12532 -0.269969,-0.0414 -0.538895,-0.0879 -0.8106,-0.12104 -0.283081,-0.0366 -0.567072,-0.0662 -0.85153,-0.0945 -0.298712,-0.0329 -0.596863,-0.0703 -0.89709,-0.0927 -0.298999,-0.0255 -0.597968,-0.0535 -0.898273,-0.0661 -0.258142,-0.0134 -0.516458,-0.0301 -0.775314,-0.0269 -0.242881,0 -0.485758,2.9e-4 -0.728638,4.3e-4 -0.231036,2e-5 -0.462071,1.8e-4 -0.693103,3.9e-4 -0.214045,2.7e-4 -0.428085,4.8e-4 -0.642126,8.2e-4 -0.184239,2.4e-4 -0.368476,9e-4 -0.552711,10e-4 -0.141514,3.1e-4 -0.283034,5e-4 -0.424535,0.002 -0.04485,-0.051 0.925318,-0.63341 0.970178,-0.5824 z"
       inkscape:connector-curvature="0" />
    <path
       style="fill:#0bffff;fill-opacity:1;stroke:#ffffff;stroke-width:0.2885612;stroke-opacity:1"
       id="path1228-0"
       d="m 75.146513,260.60336 c -0.136802,0.002 -0.27363,0.002 -0.410444,0.002 -0.179547,5.1e-4 -0.359094,10e-4 -0.538642,10e-4 -0.209463,3.4e-4 -0.418924,5.5e-4 -0.628387,8.2e-4 -0.226629,2e-4 -0.453264,3.7e-4 -0.679893,3.9e-4 -0.238232,1.5e-4 -0.476466,4.3e-4 -0.7147,4.3e-4 -0.254844,-4.8e-4 -0.509133,0.0195 -0.763263,0.0338 -0.294649,0.0162 -0.587994,0.0463 -0.881771,0.0711 -0.295824,0.0238 -0.589669,0.0624 -0.884309,0.0947 -0.28146,0.0256 -0.561516,0.058 -0.841165,0.0948 -0.267441,0.0349 -0.53221,0.0826 -0.798555,0.12293 -0.265226,0.0425 -0.531149,0.081 -0.795545,0.12707 -0.270079,0.0456 -0.536851,0.10369 -0.802572,0.16442 -0.271323,0.0614 -0.539847,0.13119 -0.807508,0.20295 -0.26892,0.0727 -0.542429,0.1325 -0.812668,0.20139 -0.263477,0.0649 -0.525527,0.13374 -0.788734,0.19941 -0.276038,0.0752 -0.554693,0.14353 -0.830802,0.2185 -0.266365,0.0707 -0.531024,0.14564 -0.798701,0.21277 -0.243393,0.068 -0.486464,0.13683 -0.731367,0.2009 -0.240553,0.0585 -0.477143,0.12785 -0.715353,0.19269 -0.218221,0.0572 -0.432037,0.12574 -0.646461,0.1922 -0.192917,0.0591 -0.385899,0.11803 -0.578432,0.17802 -0.169152,0.0486 -0.332866,0.10895 -0.498113,0.16593 -0.142033,0.0507 -0.279353,0.10989 -0.420696,0.1619 -0.06581,0.0243 -0.128587,0.0538 -0.192123,0.082 -0.0409,0.0525 0.939917,0.59275 0.980814,0.54027 v 0 c 0.06164,-0.027 0.123254,-0.0542 0.187084,-0.0775 0.138959,-0.0535 0.275463,-0.11157 0.416703,-0.1609 0.16286,-0.0576 0.325787,-0.11517 0.492412,-0.16483 0.191523,-0.0606 0.383845,-0.11934 0.57561,-0.17936 0.212309,-0.0666 0.424712,-0.13337 0.640831,-0.19084 0.237187,-0.066 0.474072,-0.13291 0.713759,-0.19232 0.243554,-0.0654 0.485769,-0.13429 0.728784,-0.20113 0.266596,-0.0693 0.530679,-0.14499 0.796827,-0.21546 0.276705,-0.0732 0.554101,-0.14454 0.831461,-0.21594 0.262888,-0.0664 0.525512,-0.13344 0.788438,-0.19969 0.271182,-0.0674 0.544049,-0.13009 0.813299,-0.20297 0.26673,-0.0709 0.534818,-0.13837 0.8051,-0.1991 0.26468,-0.0593 0.530777,-0.11448 0.799608,-0.15897 0.264033,-0.045 0.529694,-0.0826 0.79424,-0.12532 0.265322,-0.0414 0.52962,-0.0879 0.796647,-0.12104 0.278208,-0.0366 0.55731,-0.0662 0.836873,-0.0945 0.29357,-0.0329 0.586588,-0.0703 0.881648,-0.0927 0.293851,-0.0255 0.587674,-0.0535 0.882811,-0.0661 0.253698,-0.0134 0.507567,-0.0301 0.761967,-0.0269 0.2387,0 0.477398,2.9e-4 0.716097,4.3e-4 0.227059,2e-5 0.454116,1.8e-4 0.681172,3.9e-4 0.21036,2.7e-4 0.420716,4.8e-4 0.631073,8.2e-4 0.181067,2.4e-4 0.362133,9e-4 0.543196,10e-4 0.139078,3.1e-4 0.278163,5e-4 0.417227,0.002 0.04407,-0.051 -0.90939,-0.63341 -0.953477,-0.5824 z"
       inkscape:connector-curvature="0" />
    <path
       style="fill:none;stroke:#0bffff;stroke-width:0.7;stroke-linecap:butt;stroke-linejoin:miter;stroke-opacity:1;stroke-miterlimit:4;stroke-dasharray:none"
       d="m 34.310725,277.22874 c 3.159626,5.36968 12.10033,7.10997 20.623185,6.75134 17.815809,-1.48457 19.25336,-3.39948 20.703366,-6.89166"
       id="path1319"
       inkscape:connector-curvature="0"
       sodipodi:nodetypes="ccc" />
  </g>
</svg>
